{
    "StatusDB_file_name": "/var/eventindex/status_db.sqlite",
    "download_folder": "/var/eventindex/download_cache/",
    "requests_folder": "/var/eventindex/requests",
    "CMTConfig": "x86_64-slc6-gcc48-opt",
    "SetupProject_env": {
	"USER": "dirac",
	"PATH": "/usr/bin:/bin",
	"HOME": "/home/dirac",
	"LHCBDEV": "/afs/cern.ch/lhcb/software/DEV"},
    "da_vinci_version": "DaVinci --dev v37r2p4",
    "python_executable": "python2.7",
    "run_process_request_location": "/home/dirac/.local/bin/run_process_request.py",
    "mail_from": "EventIndex Grid Collector <dirac@eindex.cern.ch>",
    "mail_host": "localhost",
    "dashboard_link": "https://eindex.cern.ch/dashboard",
    "rpc_listen_address": "0.0.0.0",
    "rpc_listen_port": 9152,
    "rpc_pid_file": "/var/run/eventindex-grid-collector.pid",
    "log_level": 10,
    "downloads_base_url": "https://eindex.cern.ch/data"
}

